-------------------------------------------------------------------------------
Test set: by.epam.training.finalproject.hotel.database.dao.HotelRoomDaoTest
-------------------------------------------------------------------------------
Tests run: 7, Failures: 0, Errors: 0, Skipped: 4, Time elapsed: 0.25 sec
